{
  "type": "File",
  "start": 0,
  "end": 65,
  "loc": {
    "start": {
      "line": 1,
      "column": 0
    },
    "end": {
      "line": 9,
      "column": 0
    }
  },
  "program": {
    "type": "Program",
    "start": 0,
    "end": 65,
    "loc": {
      "start": {
        "line": 1,
        "column": 0
      },
      "end": {
        "line": 9,
        "column": 0
      }
    },
    "sourceType": "module",
    "body": [
      {
        "type": "ExportNamedDeclaration",
        "start": 40,
        "end": 64,
        "loc": {
          "start": {
            "line": 7,
            "column": 0
          },
          "end": {
            "line": 8,
            "column": 1
          }
        },
        "specifiers": [],
        "source": null,
        "declaration": {
          "type": "ClassDeclaration",
          "start": 47,
          "end": 64,
          "loc": {
            "start": {
              "line": 7,
              "column": 7
            },
            "end": {
              "line": 8,
              "column": 1
            }
          },
          "id": {
            "type": "Identifier",
            "start": 53,
            "end": 60,
            "loc": {
              "start": {
                "line": 7,
                "column": 13
              },
              "end": {
                "line": 7,
                "column": 20
              },
              "identifierName": "Pokemon"
            },
            "name": "Pokemon",
            "leadingComments": null
          },
          "superClass": null,
          "body": {
            "type": "ClassBody",
            "start": 61,
            "end": 64,
            "loc": {
              "start": {
                "line": 7,
                "column": 21
              },
              "end": {
                "line": 8,
                "column": 1
              }
            },
            "body": []
          },
          "leadingComments": [
            {
              "type": "CommentBlock",
              "value": "*\n * @desc\n *\n * @lineNumber\n * 1\n ",
              "start": 0,
              "end": 39,
              "loc": {
                "start": {
                  "line": 1,
                  "column": 0
                },
                "end": {
                  "line": 6,
                  "column": 3
                }
              }
            }
          ],
          "trailingComments": []
        },
        "leadingComments": [
          {
            "type": "CommentBlock",
            "value": "*\n * @desc\n *\n * @lineNumber\n * 1\n ",
            "start": 0,
            "end": 39,
            "loc": {
              "start": {
                "line": 1,
                "column": 0
              },
              "end": {
                "line": 6,
                "column": 3
              }
            }
          }
        ]
      }
    ],
    "directives": []
  },
  "comments": [
    {
      "type": "CommentBlock",
      "value": "*\n * @desc\n *\n * @lineNumber\n * 1\n ",
      "start": 0,
      "end": 39,
      "loc": {
        "start": {
          "line": 1,
          "column": 0
        },
        "end": {
          "line": 6,
          "column": 3
        }
      }
    }
  ],
  "tokens": [
    {
      "type": "CommentBlock",
      "value": "*\n * @desc\n *\n * @lineNumber\n * 1\n ",
      "start": 0,
      "end": 39,
      "loc": {
        "start": {
          "line": 1,
          "column": 0
        },
        "end": {
          "line": 6,
          "column": 3
        }
      }
    },
    {
      "type": {
        "label": "export",
        "keyword": "export",
        "beforeExpr": false,
        "startsExpr": false,
        "rightAssociative": false,
        "isLoop": false,
        "isAssign": false,
        "prefix": false,
        "postfix": false,
        "binop": null,
        "updateContext": null
      },
      "value": "export",
      "start": 40,
      "end": 46,
      "loc": {
        "start": {
          "line": 7,
          "column": 0
        },
        "end": {
          "line": 7,
          "column": 6
        }
      }
    },
    {
      "type": {
        "label": "class",
        "keyword": "class",
        "beforeExpr": false,
        "startsExpr": false,
        "rightAssociative": false,
        "isLoop": false,
        "isAssign": false,
        "prefix": false,
        "postfix": false,
        "binop": null,
        "updateContext": null
      },
      "value": "class",
      "start": 47,
      "end": 52,
      "loc": {
        "start": {
          "line": 7,
          "column": 7
        },
        "end": {
          "line": 7,
          "column": 12
        }
      }
    },
    {
      "type": {
        "label": "name",
        "beforeExpr": false,
        "startsExpr": true,
        "rightAssociative": false,
        "isLoop": false,
        "isAssign": false,
        "prefix": false,
        "postfix": false,
        "binop": null
      },
      "value": "Pokemon",
      "start": 53,
      "end": 60,
      "loc": {
        "start": {
          "line": 7,
          "column": 13
        },
        "end": {
          "line": 7,
          "column": 20
        }
      }
    },
    {
      "type": {
        "label": "{",
        "beforeExpr": true,
        "startsExpr": true,
        "rightAssociative": false,
        "isLoop": false,
        "isAssign": false,
        "prefix": false,
        "postfix": false,
        "binop": null
      },
      "start": 61,
      "end": 62,
      "loc": {
        "start": {
          "line": 7,
          "column": 21
        },
        "end": {
          "line": 7,
          "column": 22
        }
      }
    },
    {
      "type": {
        "label": "}",
        "beforeExpr": false,
        "startsExpr": false,
        "rightAssociative": false,
        "isLoop": false,
        "isAssign": false,
        "prefix": false,
        "postfix": false,
        "binop": null
      },
      "start": 63,
      "end": 64,
      "loc": {
        "start": {
          "line": 8,
          "column": 0
        },
        "end": {
          "line": 8,
          "column": 1
        }
      }
    },
    {
      "type": {
        "label": "eof",
        "beforeExpr": false,
        "startsExpr": false,
        "rightAssociative": false,
        "isLoop": false,
        "isAssign": false,
        "prefix": false,
        "postfix": false,
        "binop": null,
        "updateContext": null
      },
      "start": 65,
      "end": 65,
      "loc": {
        "start": {
          "line": 9,
          "column": 0
        },
        "end": {
          "line": 9,
          "column": 0
        }
      }
    }
  ]
}